<svg xmlns="http://www.w3.org/2000/svg" xmlns:xlink="http://www.w3.org/1999/xlink" width="16" height="16" viewBox="0 0 16 16">
  <defs>
    <clipPath id="clip-HUFPK-Favicon">
      <rect width="16" height="16"/>
    </clipPath>
  </defs>
  <g id="HUFPK-Favicon" clip-path="url(#clip-HUFPK-Favicon)">
    <g id="Group_1757" data-name="Group 1757" transform="translate(0.001)">
      <path id="Path_239" data-name="Path 239" d="M16,6.508V.2H9.522L0,9.674V16.1H6.524ZM1.007,15.1V10.034L9.954,1.207h5.037V6.173L6.02,15.1Z" transform="translate(0 -0.152)" fill="#00984a"/>
      <path id="Path_240" data-name="Path 240" d="M11.3,21.826H21.854V11.2H11.3Zm9.762-.816H12.116V12.016h8.947Z" transform="translate(-8.59 -8.514)" fill="#00984a"/>
      <path id="Path_238" data-name="Path 238" d="M6.508,0H.2V6.476L9.65,16h6.428V9.474ZM15.1,14.991H10.034L1.207,6.044V1.007H6.173L15.1,9.978Z" transform="translate(-0.152)" fill="#00984a"/>
    </g>
  </g>
</svg>
