<svg xmlns="http://www.w3.org/2000/svg" xmlns:xlink="http://www.w3.org/1999/xlink" width="245" height="69" viewBox="0 0 245 69">
  <defs>
    <clipPath id="clip-Website_logo_2">
      <rect width="245" height="69"/>
    </clipPath>
  </defs>
  <g id="Website_logo_2" data-name="Website logo – 2" clip-path="url(#clip-Website_logo_2)">
    <g id="Group_1753" data-name="Group 1753">
      <path id="Path_239" data-name="Path 239" d="M54.109,21.535V.2h-21.9L0,32.243V53.984H22.065ZM3.407,50.577V33.46L33.666,3.607H50.7V20.4L20.362,50.577Z" transform="translate(0 -0.038)" fill="#00984a"/>
      <path id="Path_240" data-name="Path 240" d="M11.3,47.137H46.994V11.2H11.3Zm33.017-2.758H14.058V13.958H44.317Z" transform="translate(-2.133 -2.114)" fill="#00984a"/>
      <path id="Path_238" data-name="Path 238" d="M21.535,0H.2V21.9L32.162,54.109H53.9V32.043ZM50.577,50.7H33.46L3.607,20.443V3.407H20.4l30.178,30.34Z" transform="translate(-0.038)" fill="#00984a"/>
      <g id="Group_1738" data-name="Group 1738" transform="translate(-933.973 -199.295)">
        <path id="Path_25991" data-name="Path 25991" d="M945.709,255.691v10.99h-2.677v-4.524h-4.164v4.524H936.19v-10.99h2.677V260h4.164v-4.305Z" transform="translate(-2.217)" fill="#00984a"/>
        <path id="Path_25992" data-name="Path 25992" d="M967.509,255.691v6.575a2.176,2.176,0,0,0,.485,1.519,1.833,1.833,0,0,0,1.425.532,1.883,1.883,0,0,0,1.44-.532,2.133,2.133,0,0,0,.5-1.519v-6.575h2.677v6.56a4.665,4.665,0,0,1-.626,2.489,4.01,4.01,0,0,1-1.683,1.534,5.29,5.29,0,0,1-2.356.517,5.158,5.158,0,0,1-2.325-.509,3.793,3.793,0,0,1-1.62-1.534,4.9,4.9,0,0,1-.595-2.5v-6.56Z" transform="translate(-7.965)" fill="#00984a"/>
        <path id="Path_25993" data-name="Path 25993" d="M999.842,255.691v2.145h-4.478v2.317h3.35v2.082h-3.35v4.446h-2.677v-10.99Z" transform="translate(-12.003)" fill="#00984a"/>
      </g>
    </g>
    <g id="Group_1760" data-name="Group 1760" transform="translate(-735.771 -581.929)">
      <g id="Group_1758" data-name="Group 1758" transform="translate(797.493 590.115)">
        <path id="Path_26024" data-name="Path 26024" d="M806.812,602.257h-5.584v6.068h-3.59V593.587h3.59v5.773h5.584v-5.773H810.4v14.738h-3.591Z" transform="translate(-797.638 -591.508)" fill="#36183e"/>
        <path id="Path_26025" data-name="Path 26025" d="M827.243,598.355a4.076,4.076,0,0,1,3.61,1.827v-1.658h3.59v11.715h-3.59V608.58a4.141,4.141,0,0,1-3.632,1.826c-2.855,0-5.143-2.351-5.143-6.046S824.366,598.355,827.243,598.355Zm1.05,3.128a2.608,2.608,0,0,0-2.561,2.876,2.646,2.646,0,0,0,2.561,2.918,2.919,2.919,0,0,0,0-5.794Z" transform="translate(-807.445 -593.422)" fill="#36183e"/>
        <path id="Path_26026" data-name="Path 26026" d="M854.279,595.907c2.9,0,5.165,2.31,5.165,6s-2.288,6.046-5.165,6.046a4.117,4.117,0,0,1-3.611-1.805v1.638h-3.59V592.254h3.59v5.48A4.137,4.137,0,0,1,854.279,595.907Zm-1.07,3.128a2.916,2.916,0,1,0,2.582,2.876A2.627,2.627,0,0,0,853.209,599.035Z" transform="translate(-817.477 -590.973)" fill="#36183e"/>
        <path id="Path_26027" data-name="Path 26027" d="M870.325,592.067A2.141,2.141,0,1,1,872.467,594,1.986,1.986,0,0,1,870.325,592.067Zm.336,3.149h3.59v11.715h-3.59Z" transform="translate(-826.805 -590.115)" fill="#36183e"/>
        <path id="Path_26028" data-name="Path 26028" d="M888.431,595.907c2.9,0,5.165,2.31,5.165,6s-2.288,6.046-5.165,6.046a4.116,4.116,0,0,1-3.611-1.805v1.638h-3.59V592.254h3.59v5.48A4.136,4.136,0,0,1,888.431,595.907Zm-1.071,3.128a2.916,2.916,0,1,0,2.582,2.876A2.627,2.627,0,0,0,887.36,599.035Z" transform="translate(-831.181 -590.973)" fill="#36183e"/>
        <path id="Path_26029" data-name="Path 26029" d="M912.367,593.587h3.59V602.4c0,1.743.86,2.75,2.561,2.75a2.42,2.42,0,0,0,2.6-2.75v-8.817h3.59v8.8c0,4.073-2.855,6.088-6.256,6.088-3.422,0-6.089-2.015-6.089-6.088Z" transform="translate(-843.676 -591.508)" fill="#36183e"/>
        <path id="Path_26030" data-name="Path 26030" d="M945.274,603.905a2.257,2.257,0,1,0-4.492,0v6.361h-3.591V598.552h3.591V600.1a4.3,4.3,0,0,1,3.548-1.679c2.708,0,4.513,1.848,4.513,5v6.844h-3.569Z" transform="translate(-853.637 -593.45)" fill="#36183e"/>
        <path id="Path_26031" data-name="Path 26031" d="M960.264,592.067A2.141,2.141,0,1,1,962.405,594,1.986,1.986,0,0,1,960.264,592.067Zm.336,3.149h3.59v11.715H960.6Z" transform="translate(-862.896 -590.115)" fill="#36183e"/>
        <path id="Path_26032" data-name="Path 26032" d="M973.152,598.636l2.54,8.356,2.54-8.356h3.82L977.9,610.351h-4.43l-4.157-11.715Z" transform="translate(-866.525 -593.534)" fill="#36183e"/>
        <path id="Path_26033" data-name="Path 26033" d="M997.847,610.406a6.026,6.026,0,0,1,0-12.051,5.521,5.521,0,0,1,5.836,5.837,9.074,9.074,0,0,1-.063,1.049H995.5a2.171,2.171,0,0,0,2.225,2.246,1.907,1.907,0,0,0,1.869-1.133h3.821A5.475,5.475,0,0,1,997.847,610.406Zm-2.33-7.159h4.493a2.026,2.026,0,0,0-2.2-2.015A2.22,2.22,0,0,0,995.517,603.247Z" transform="translate(-875.601 -593.422)" fill="#36183e"/>
        <path id="Path_26034" data-name="Path 26034" d="M1018.308,610.266h-3.59V598.552h3.59V600.5a4.368,4.368,0,0,1,3.674-2.078v3.8H1021c-1.7,0-2.687.588-2.687,2.6Z" transform="translate(-884.746 -593.45)" fill="#36183e"/>
        <path id="Path_26035" data-name="Path 26035" d="M1034.069,610.406c-3.128,0-5.228-1.742-5.4-4.01h3.548a1.645,1.645,0,0,0,1.806,1.365c.924,0,1.406-.42,1.406-.945,0-1.889-6.382-.525-6.382-4.828,0-1.994,1.7-3.633,4.765-3.633,3.023,0,4.7,1.68,4.934,3.989h-3.317a1.544,1.544,0,0,0-1.721-1.323c-.84,0-1.3.336-1.3.9,0,1.869,6.34.547,6.4,4.913C1038.813,608.873,1037.008,610.406,1034.069,610.406Z" transform="translate(-890.346 -593.422)" fill="#36183e"/>
        <path id="Path_26036" data-name="Path 26036" d="M1048.73,592.067a2.141,2.141,0,1,1,2.142,1.932A1.987,1.987,0,0,1,1048.73,592.067Zm.336,3.149h3.59v11.715h-3.59Z" transform="translate(-898.395 -590.115)" fill="#36183e"/>
        <path id="Path_26037" data-name="Path 26037" d="M1059.625,599.7H1058.2v-2.981h1.427v-2.855h3.59v2.855h2.351V599.7h-2.351v4.7c0,.693.294.987,1.092.987h1.281v3.044h-1.827c-2.436,0-4.136-1.029-4.136-4.073Z" transform="translate(-902.194 -591.621)" fill="#36183e"/>
        <path id="Path_26038" data-name="Path 26038" d="M1081.067,598.636h3.884l-7.348,17.278h-3.863l2.688-5.962-4.766-11.316h4.01l2.708,7.327Z" transform="translate(-907.596 -593.534)" fill="#36183e"/>
      </g>
      <g id="Group_1759" data-name="Group 1759" transform="translate(797.276 615.639)">
        <path id="Path_26039" data-name="Path 26039" d="M797.276,635.638h8v2.4h-5v2.589h3.744v2.327h-3.744v4.968h-2.992Z" transform="translate(-797.276 -633.906)" fill="#36183e"/>
        <path id="Path_26040" data-name="Path 26040" d="M821.1,649.653a5.022,5.022,0,1,1,5.109-5.021A4.844,4.844,0,0,1,821.1,649.653Zm0-2.589a2.137,2.137,0,0,0,2.065-2.432c0-1.662-.98-2.431-2.029-2.431-1.085,0-2.03.769-2.03,2.431C819.109,646.277,820.018,647.065,821.1,647.065Z" transform="translate(-804.816 -635.5)" fill="#36183e"/>
        <path id="Path_26041" data-name="Path 26041" d="M849.051,649.608H846.06v-1.329a3.558,3.558,0,0,1-2.957,1.435c-2.257,0-3.779-1.557-3.779-4.164v-5.7H842.3v5.3a1.889,1.889,0,1,0,3.761,0v-5.3h2.991Z" transform="translate(-814.149 -635.594)" fill="#36183e"/>
        <path id="Path_26042" data-name="Path 26042" d="M869.7,644.237a1.881,1.881,0,1,0-3.744,0v5.3h-2.992v-9.762h2.992v1.294a3.579,3.579,0,0,1,2.957-1.4c2.257,0,3.762,1.539,3.762,4.164v5.7H869.7Z" transform="translate(-823.634 -635.524)" fill="#36183e"/>
        <path id="Path_26043" data-name="Path 26043" d="M889.766,637.571a3.582,3.582,0,0,1,3.009,1.488v-4.532h2.992v12.946h-2.992v-1.4a3.376,3.376,0,0,1-3.009,1.539c-2.4,0-4.3-1.96-4.3-5.038S887.369,637.571,889.766,637.571Zm.875,2.607a2.173,2.173,0,0,0-2.135,2.4,2.205,2.205,0,0,0,2.135,2.431,2.432,2.432,0,0,0,0-4.828Z" transform="translate(-832.663 -633.46)" fill="#36183e"/>
        <path id="Path_26044" data-name="Path 26044" d="M913.4,639.611a3.4,3.4,0,0,1,3.009,1.522v-1.381h2.992v9.762h-2.992v-1.382a3.453,3.453,0,0,1-3.026,1.522c-2.379,0-4.286-1.96-4.286-5.038S911.008,639.611,913.4,639.611Zm.875,2.608a2.173,2.173,0,0,0-2.135,2.4,2.205,2.205,0,0,0,2.135,2.432,2.432,2.432,0,0,0,0-4.828Z" transform="translate(-842.148 -635.5)" fill="#36183e"/>
        <path id="Path_26045" data-name="Path 26045" d="M933.725,640.735h-1.19v-2.484h1.19v-2.38h2.992v2.38h1.96v2.484h-1.96v3.919c0,.577.245.822.909.822h1.067v2.537h-1.523c-2.029,0-3.446-.857-3.446-3.394Z" transform="translate(-851.552 -633.999)" fill="#36183e"/>
        <path id="Path_26046" data-name="Path 26046" d="M948.928,634.372a1.784,1.784,0,1,1,1.784,1.609A1.654,1.654,0,0,1,948.928,634.372Zm.28,2.625H952.2v9.762h-2.992Z" transform="translate(-858.13 -632.745)" fill="#36183e"/>
        <path id="Path_26047" data-name="Path 26047" d="M965.859,649.653a5.022,5.022,0,1,1,5.108-5.021A4.843,4.843,0,0,1,965.859,649.653Zm0-2.589a2.138,2.138,0,0,0,2.065-2.432c0-1.662-.98-2.431-2.03-2.431-1.085,0-2.03.769-2.03,2.431C963.864,646.277,964.774,647.065,965.859,647.065Z" transform="translate(-862.902 -635.5)" fill="#36183e"/>
        <path id="Path_26048" data-name="Path 26048" d="M990.961,644.237a1.881,1.881,0,1,0-3.744,0v5.3h-2.992v-9.762h2.992v1.294a3.578,3.578,0,0,1,2.956-1.4c2.257,0,3.762,1.539,3.762,4.164v5.7h-2.974Z" transform="translate(-872.294 -635.524)" fill="#36183e"/>
      </g>
    </g>
  </g>
</svg>
