<svg xmlns="http://www.w3.org/2000/svg" xmlns:xlink="http://www.w3.org/1999/xlink" width="54" height="69" viewBox="0 0 54 69">
  <defs>
    <clipPath id="clip-Mobile_logo_1">
      <rect width="54" height="69"/>
    </clipPath>
  </defs>
  <g id="Mobile_logo_1" data-name="Mobile logo – 1" clip-path="url(#clip-Mobile_logo_1)">
    <g id="Group_1762" data-name="Group 1762">
      <g id="Group_1761" data-name="Group 1761">
        <path id="Path_239" data-name="Path 239" d="M54.109,21.535V.2h-21.9L0,32.243V53.984H22.065ZM3.407,50.577V33.46L33.666,3.607H50.7V20.4L20.362,50.577Z" transform="translate(0 -0.038)" fill="#00984a"/>
        <path id="Path_240" data-name="Path 240" d="M11.3,47.137H46.994V11.2H11.3Zm33.017-2.758H14.058V13.958H44.317Z" transform="translate(-2.133 -2.114)" fill="#00984a"/>
        <path id="Path_238" data-name="Path 238" d="M21.535,0H.2V21.9L32.162,54.109H53.9V32.043ZM50.577,50.7H33.46L3.607,20.443V3.407H20.4l30.178,30.34Z" transform="translate(-0.038)" fill="#00984a"/>
      </g>
      <g id="Group_1738" data-name="Group 1738" transform="translate(-933.542 -199.295)">
        <path id="Path_25991" data-name="Path 25991" d="M945.709,255.691v10.99h-2.677v-4.524h-4.164v4.524H936.19v-10.99h2.677V260h4.164v-4.305Z" transform="translate(-2.648)" fill="#00984a"/>
        <path id="Path_25992" data-name="Path 25992" d="M967.509,255.691v6.575a2.176,2.176,0,0,0,.485,1.519,1.833,1.833,0,0,0,1.425.532,1.883,1.883,0,0,0,1.44-.532,2.133,2.133,0,0,0,.5-1.519v-6.575h2.677v6.56a4.665,4.665,0,0,1-.626,2.489,4.01,4.01,0,0,1-1.683,1.534,5.29,5.29,0,0,1-2.356.517,5.158,5.158,0,0,1-2.325-.509,3.793,3.793,0,0,1-1.62-1.534,4.9,4.9,0,0,1-.595-2.5v-6.56Z" transform="translate(-8.445)" fill="#00984a"/>
        <path id="Path_25993" data-name="Path 25993" d="M999.842,255.691v2.145h-4.478v2.317h3.35v2.082h-3.35v4.446h-2.677v-10.99Z" transform="translate(-12.3)" fill="#00984a"/>
      </g>
    </g>
  </g>
</svg>
