<svg xmlns="http://www.w3.org/2000/svg" width="23.148" height="18.023" viewBox="0 0 23.148 18.023">
  <g id="arrow" transform="translate(1.017 1.411)">
    <path id="Path_25914" data-name="Path 25914" d="M-5685.475,12889.424l19.853.336" transform="translate(5685.475 -12882.027)" fill="none" stroke="#bf1e2d" stroke-linecap="round" stroke-width="2"/>
    <path id="Path_25915" data-name="Path 25915" d="M-5669.176,12879.26l8.746,7.705-8.746,7.5" transform="translate(5681.037 -12879.26)" fill="none" stroke="#bf1e2d" stroke-linecap="round" stroke-width="2"/>
  </g>
</svg>
