<svg xmlns="http://www.w3.org/2000/svg" xmlns:xlink="http://www.w3.org/1999/xlink" width="211" height="62" viewBox="0 0 211 62">
  <defs>
    <clipPath id="clip-HUfPK-logo_Updated_">
      <rect width="211" height="62"/>
    </clipPath>
  </defs>
  <g id="HUfPK-logo_Updated_" data-name="HUfPK-logo(Updated)" clip-path="url(#clip-HUfPK-logo_Updated_)">
    <g id="Group_1807" data-name="Group 1807" transform="translate(-18 -5)">
      <g id="Group_1806" data-name="Group 1806" transform="translate(20.057 7)">
        <g id="Group_14" data-name="Group 14" transform="translate(0 0)">
          <path id="Path_239" data-name="Path 239" d="M43.457,17.439V.2H25.866L0,26.091V43.657H17.722ZM2.736,40.9V27.074l24.3-24.121H40.721V16.521L16.353,40.9Z" transform="translate(0 -0.2)" fill="#00984a"/>
          <path id="Path_240" data-name="Path 240" d="M11.3,40.063H39.967V11.2H11.3Zm26.517-2.215h-24.3V13.415h24.3Z" transform="translate(-3.938 -3.903)" fill="#00984a"/>
          <path id="Path_238" data-name="Path 238" d="M17.413,0H.2V17.591L25.987,43.457h17.54V25.735ZM40.844,40.721H27.034L2.949,16.419V2.736H16.5L40.844,27.1Z" transform="translate(-0.07 0)" fill="#00984a"/>
        </g>
        <g id="Group_1738" data-name="Group 1738" transform="translate(0 46.649)">
          <path id="Path_25991" data-name="Path 25991" d="M943.914,255.691v8.918h-2.172v-3.671h-3.379v3.671H936.19v-8.918h2.173v3.493h3.379v-3.493Z" transform="translate(-936.19 -255.691)" fill="#00984a"/>
          <path id="Path_25992" data-name="Path 25992" d="M967,255.691v5.336a1.766,1.766,0,0,0,.394,1.232,1.487,1.487,0,0,0,1.156.432,1.528,1.528,0,0,0,1.169-.432,1.731,1.731,0,0,0,.406-1.232v-5.336H972.3v5.323a3.785,3.785,0,0,1-.508,2.02,3.254,3.254,0,0,1-1.366,1.245,4.293,4.293,0,0,1-1.912.419,4.185,4.185,0,0,1-1.887-.413,3.078,3.078,0,0,1-1.315-1.245,3.975,3.975,0,0,1-.483-2.026v-5.323Z" transform="translate(-955.584 -255.691)" fill="#00984a"/>
          <path id="Path_25993" data-name="Path 25993" d="M998.493,255.691v1.74h-3.634v1.88h2.719V261h-2.719v3.608h-2.172v-8.918Z" transform="translate(-974.444 -255.691)" fill="#00984a"/>
          <path id="Path_25994" data-name="Path 25994" d="M1028.989,259.978a2.616,2.616,0,0,1-1.093,1.036,3.847,3.847,0,0,1-1.829.394h-1.347v3.2h-2.172v-8.918h3.519a4,4,0,0,1,1.8.368,2.537,2.537,0,0,1,1.105,1.016,2.958,2.958,0,0,1,.368,1.487A2.871,2.871,0,0,1,1028.989,259.978Zm-2.159-.591a1.272,1.272,0,0,0,0-1.652,1.3,1.3,0,0,0-.927-.292h-1.182v2.236h1.182A1.3,1.3,0,0,0,1026.829,259.388Z" transform="translate(-994.663 -255.691)" fill="#00984a"/>
          <path id="Path_25995" data-name="Path 25995" d="M1052.268,264.609l-3-3.938v3.938H1047.1v-8.918h2.172V259.6l2.973-3.913h2.553l-3.455,4.37,3.583,4.548Z" transform="translate(-1011.286 -255.691)" fill="#00984a"/>
        </g>
      </g>
      <g id="Group_1784" data-name="Group 1784" transform="translate(70.716 16)">
        <g id="Group_1780" data-name="Group 1780" transform="translate(0 -3)">
          <path id="Path_26059" data-name="Path 26059" d="M795.59,711.584h-6.85v6.1h-1.756v-13.45h1.756v5.9h6.85v-5.9h1.756v13.45H795.59Z" transform="translate(-786.984 -702.997)" fill="#461a55"/>
          <path id="Path_26060" data-name="Path 26060" d="M814.339,708.991a4.39,4.39,0,0,1,3.936,2.1v-1.929h1.775v10.574h-1.775v-1.968a4.415,4.415,0,0,1-3.956,2.141c-2.818,0-5-2.219-5-5.5C809.322,711.114,811.5,708.991,814.339,708.991Zm.347,1.525a3.57,3.57,0,0,0-3.57,3.9,3.593,3.593,0,1,0,3.57-3.9Z" transform="translate(-796.643 -705.055)" fill="#461a55"/>
          <path id="Path_26061" data-name="Path 26061" d="M839.173,706.3c2.856,0,5.018,2.123,5.018,5.423,0,3.28-2.181,5.5-5.018,5.5a4.412,4.412,0,0,1-3.956-2.122v1.949h-1.756V702.771h1.756v5.673A4.479,4.479,0,0,1,839.173,706.3Zm-.367,1.525a3.942,3.942,0,1,0,3.589,3.9A3.574,3.574,0,0,0,838.806,707.826Z" transform="translate(-807.081 -702.366)" fill="#461a55"/>
          <path id="Path_26062" data-name="Path 26062" d="M855.936,703.253a1.177,1.177,0,1,1,1.2,1.2A1.178,1.178,0,0,1,855.936,703.253Zm.289,2.914h1.756v10.574h-1.756Z" transform="translate(-816.799 -702.057)" fill="#461a55"/>
          <path id="Path_26063" data-name="Path 26063" d="M870.521,706.3c2.856,0,5.017,2.123,5.017,5.423,0,3.28-2.18,5.5-5.017,5.5a4.412,4.412,0,0,1-3.956-2.122v1.949h-1.756V702.771h1.756v5.673A4.479,4.479,0,0,1,870.521,706.3Zm-.367,1.525a3.942,3.942,0,1,0,3.589,3.9A3.574,3.574,0,0,0,870.154,707.826Z" transform="translate(-820.636 -702.366)" fill="#461a55"/>
          <path id="Path_26064" data-name="Path 26064" d="M896.8,704.232h1.756v8.51c0,2.47,1.332,3.531,3.319,3.531s3.3-1.061,3.3-3.531v-8.51h1.756v8.49a5.065,5.065,0,1,1-10.13,0Z" transform="translate(-834.471 -702.997)" fill="#461a55"/>
          <path id="Path_26065" data-name="Path 26065" d="M927.558,713.743c0-2.161-1.177-3.261-2.953-3.261-1.794,0-3.029,1.119-3.029,3.4v5.847H919.82V709.151h1.756v1.5a3.907,3.907,0,0,1,3.4-1.7c2.451,0,4.323,1.5,4.323,4.534v6.233h-1.737Z" transform="translate(-844.423 -705.041)" fill="#461a55"/>
          <path id="Path_26066" data-name="Path 26066" d="M941.07,703.253a1.177,1.177,0,1,1,1.2,1.2A1.178,1.178,0,0,1,941.07,703.253Zm.289,2.914h1.756v10.574h-1.756Z" transform="translate(-853.612 -702.057)" fill="#461a55"/>
          <path id="Path_26067" data-name="Path 26067" d="M949.625,709.3l3.3,8.953,3.281-8.953h1.871l-4.149,10.574h-2.046L947.734,709.3Z" transform="translate(-856.493 -705.188)" fill="#461a55"/>
          <path id="Path_26068" data-name="Path 26068" d="M973.091,719.913c-3.011,0-5.229-2.122-5.229-5.48,0-3.339,2.142-5.442,5.229-5.442a4.847,4.847,0,0,1,5.075,5.055,9.526,9.526,0,0,1-.058,1.062h-8.452a3.324,3.324,0,0,0,3.435,3.319,2.908,2.908,0,0,0,2.972-1.949h1.891A4.755,4.755,0,0,1,973.091,719.913Zm-3.415-6.232h6.676a3.1,3.1,0,0,0-3.338-3.2A3.274,3.274,0,0,0,969.676,713.68Z" transform="translate(-865.197 -705.055)" fill="#461a55"/>
          <path id="Path_26069" data-name="Path 26069" d="M991.853,719.725H990.1V709.151h1.756v1.717a3.56,3.56,0,0,1,3.415-1.91v1.813h-.463c-1.679,0-2.953.753-2.953,3.2Z" transform="translate(-874.812 -705.041)" fill="#461a55"/>
          <path id="Path_26070" data-name="Path 26070" d="M1006.081,719.913c-2.47,0-4.206-1.35-4.322-3.28h1.814c.1,1.023,1,1.795,2.489,1.795,1.389,0,2.161-.695,2.161-1.563,0-2.354-6.252-.984-6.252-4.92,0-1.621,1.525-2.953,3.878-2.953,2.335,0,3.879,1.254,3.994,3.319h-1.756a2.034,2.034,0,0,0-2.3-1.833c-1.293,0-2.064.618-2.064,1.467,0,2.508,6.136,1.139,6.213,4.92C1009.94,718.6,1008.416,719.913,1006.081,719.913Z" transform="translate(-879.854 -705.055)" fill="#461a55"/>
          <path id="Path_26071" data-name="Path 26071" d="M1020.017,703.253a1.177,1.177,0,1,1,1.2,1.2A1.178,1.178,0,0,1,1020.017,703.253Zm.289,2.914h1.756v10.574h-1.756Z" transform="translate(-887.749 -702.057)" fill="#461a55"/>
          <path id="Path_26072" data-name="Path 26072" d="M1028.526,708.716h-1.37v-1.447h1.37v-2.663h1.756v2.663h2.759v1.447h-2.759v6.232c0,1.042.386,1.409,1.467,1.409h1.293v1.486h-1.582c-1.872,0-2.933-.773-2.933-2.895Z" transform="translate(-890.836 -703.159)" fill="#461a55"/>
          <path id="Path_26073" data-name="Path 26073" d="M1047.6,709.3h1.814l-6.368,15.552h-1.814l2.084-5.094-4.264-10.458h1.949l3.319,8.567Z" transform="translate(-895.982 -705.188)" fill="#461a55"/>
        </g>
        <g id="Group_1781" data-name="Group 1781" transform="translate(0 21.538)">
          <path id="Path_26074" data-name="Path 26074" d="M786.984,742.181h7.6v1.427H788.74v4.535h4.747v1.428H788.74v6.059h-1.756Z" transform="translate(-786.984 -740.946)" fill="#461a55"/>
          <path id="Path_26075" data-name="Path 26075" d="M812.652,757.861a5.462,5.462,0,1,1,5.422-5.48A5.243,5.243,0,0,1,812.652,757.861Zm0-1.544a3.59,3.59,0,0,0,3.628-3.936,3.552,3.552,0,0,0-3.57-3.917c-1.853,0-3.531,1.254-3.531,3.917C809.179,755.063,810.819,756.317,812.652,756.317Z" transform="translate(-795.805 -743.003)" fill="#461a55"/>
          <path id="Path_26076" data-name="Path 26076" d="M844.024,757.82h-1.756v-1.563a3.886,3.886,0,0,1-3.377,1.718c-2.431,0-4.342-1.505-4.342-4.534v-6.194h1.736v5.963c0,2.141,1.177,3.241,2.953,3.241,1.814,0,3.029-1.119,3.029-3.4v-5.808h1.756Z" transform="translate(-807.552 -743.136)" fill="#461a55"/>
          <path id="Path_26077" data-name="Path 26077" d="M868.638,751.691c0-2.161-1.177-3.261-2.953-3.261-1.795,0-3.029,1.119-3.029,3.4v5.847H860.9V747.1h1.756v1.5a3.907,3.907,0,0,1,3.4-1.7c2.45,0,4.322,1.505,4.322,4.535v6.232h-1.736Z" transform="translate(-818.946 -742.989)" fill="#461a55"/>
          <path id="Path_26078" data-name="Path 26078" d="M890.96,744.249a4.612,4.612,0,0,1,3.917,2.065v-5.6h1.775V755h-1.775V753.01a4.342,4.342,0,0,1-3.936,2.161c-2.836,0-5.017-2.219-5.017-5.5C885.924,746.373,888.1,744.249,890.96,744.249Zm.328,1.525a3.57,3.57,0,0,0-3.57,3.9,3.593,3.593,0,1,0,3.57-3.9Z" transform="translate(-829.766 -740.314)" fill="#461a55"/>
          <path id="Path_26079" data-name="Path 26079" d="M918.345,746.939a4.389,4.389,0,0,1,3.936,2.1v-1.93h1.775v10.574h-1.775v-1.968a4.416,4.416,0,0,1-3.956,2.142c-2.818,0-5-2.219-5-5.5C913.328,749.062,915.508,746.939,918.345,746.939Zm.347,1.525a3.57,3.57,0,0,0-3.57,3.9,3.593,3.593,0,1,0,3.57-3.9Z" transform="translate(-841.616 -743.003)" fill="#461a55"/>
          <path id="Path_26080" data-name="Path 26080" d="M941.523,746.665h-1.37v-1.447h1.37v-2.663h1.756v2.663h2.759v1.447h-2.759V752.9c0,1.042.386,1.409,1.467,1.409h1.292v1.486h-1.582c-1.872,0-2.933-.772-2.933-2.895Z" transform="translate(-853.216 -741.108)" fill="#461a55"/>
          <path id="Path_26081" data-name="Path 26081" d="M958.173,741.2a1.177,1.177,0,1,1,1.2,1.2A1.178,1.178,0,0,1,958.173,741.2Zm.289,2.914h1.756v10.574h-1.756Z" transform="translate(-861.007 -740.005)" fill="#461a55"/>
          <path id="Path_26082" data-name="Path 26082" d="M975.579,757.861a5.462,5.462,0,1,1,5.422-5.48A5.243,5.243,0,0,1,975.579,757.861Zm0-1.544a3.59,3.59,0,0,0,3.628-3.936c0-2.663-1.756-3.917-3.57-3.917-1.853,0-3.531,1.254-3.531,3.917C972.106,755.063,973.745,756.317,975.579,756.317Z" transform="translate(-866.256 -743.003)" fill="#461a55"/>
          <path id="Path_26083" data-name="Path 26083" d="M1005.385,751.691c0-2.161-1.177-3.261-2.953-3.261-1.794,0-3.029,1.119-3.029,3.4v5.847h-1.756V747.1H999.4v1.5a3.907,3.907,0,0,1,3.4-1.7c2.451,0,4.322,1.505,4.322,4.535v6.232h-1.736Z" transform="translate(-878.076 -742.989)" fill="#461a55"/>
        </g>
      </g>
    </g>
  </g>
</svg>
