<svg id="united-kingdom" xmlns="http://www.w3.org/2000/svg" width="57.336" height="37.564" viewBox="0 0 57.336 37.564">
  <path id="Path_25917" data-name="Path 25917" d="M56.347,125.84H.989A.989.989,0,0,1,0,124.851V89.265a.989.989,0,0,1,.989-.989H56.347a.989.989,0,0,1,.989.989v35.587A.989.989,0,0,1,56.347,125.84Z" transform="translate(0 -88.276)" fill="#41479b"/>
  <path id="Path_25918" data-name="Path 25918" d="M57.336,89.265a.989.989,0,0,0-.989-.989H51.924l-18.314,12v-12H23.725v12l-18.314-12H.989A.989.989,0,0,0,0,89.265v2.557l15.712,10.294H0V112H15.712L0,122.295v2.557a.989.989,0,0,0,.989.989H5.411l18.314-12v12h9.885v-12l18.314,12h4.423a.989.989,0,0,0,.989-.989v-2.557L41.624,112H57.336v-9.885H41.623L57.336,91.821Z" transform="translate(0 -88.276)" fill="#f5f5f5"/>
  <g id="Group_1510" data-name="Group 1510" transform="translate(0 0)">
    <path id="Path_25919" data-name="Path 25919" d="M57.336,104.092h-25.7V88.276H25.7v15.816H0v5.931H25.7V125.84h5.931V110.024h25.7Z" transform="translate(0 -88.276)" fill="#ff4b55"/>
    <path id="Path_25920" data-name="Path 25920" d="M19.669,300.138.25,312.743a.947.947,0,0,0,.932.825H2.5l20.689-13.429H19.669Z" transform="translate(-0.223 -276.004)" fill="#ff4b55"/>
    <path id="Path_25921" data-name="Path 25921" d="M317.484,300.138H313.96l20.659,13.41a.95.95,0,0,0,.861-.94v-.789Z" transform="translate(-278.145 -276.004)" fill="#ff4b55"/>
    <path id="Path_25922" data-name="Path 25922" d="M0,91.062l17.58,11.411H21.1L.559,89.137A.955.955,0,0,0,0,90Z" transform="translate(0 -89.043)" fill="#ff4b55"/>
    <path id="Path_25923" data-name="Path 25923" d="M303.662,101.706l19.465-12.635a.946.946,0,0,0-.926-.794h-1.374l-20.689,13.429Z" transform="translate(-265.825 -88.277)" fill="#ff4b55"/>
  </g>
</svg>
